%!PS-Adobe-3.0 EPSF-3.0
%%Creator: cairo 1.10.2 (http://cairographics.org)
%%CreationDate: Thu Jun 18 08:10:16 2015
%%Pages: 1
%%BoundingBox: 0 -1 385 385
%%DocumentData: Clean7Bit
%%LanguageLevel: 2
%%EndComments
%%BeginProlog
/cairo_eps_state save def
/dict_count countdictstack def
/op_count count 1 sub def
userdict begin
/q { gsave } bind def
/Q { grestore } bind def
/cm { 6 array astore concat } bind def
/w { setlinewidth } bind def
/J { setlinecap } bind def
/j { setlinejoin } bind def
/M { setmiterlimit } bind def
/d { setdash } bind def
/m { moveto } bind def
/l { lineto } bind def
/c { curveto } bind def
/h { closepath } bind def
/re { exch dup neg 3 1 roll 5 3 roll moveto 0 rlineto
      0 exch rlineto 0 rlineto closepath } bind def
/S { stroke } bind def
/f { fill } bind def
/f* { eofill } bind def
/n { newpath } bind def
/W { clip } bind def
/W* { eoclip } bind def
/BT { } bind def
/ET { } bind def
/pdfmark where { pop globaldict /?pdfmark /exec load put }
    { globaldict begin /?pdfmark /pop load def /pdfmark
    /cleartomark load def end } ifelse
/BDC { mark 3 1 roll /BDC pdfmark } bind def
/EMC { mark /EMC pdfmark } bind def
/cairo_store_point { /cairo_point_y exch def /cairo_point_x exch def } def
/Tj { show currentpoint cairo_store_point } bind def
/TJ {
  {
    dup
    type /stringtype eq
    { show } { -0.001 mul 0 cairo_font_matrix dtransform rmoveto } ifelse
  } forall
  currentpoint cairo_store_point
} bind def
/cairo_selectfont { cairo_font_matrix aload pop pop pop 0 0 6 array astore
    cairo_font exch selectfont cairo_point_x cairo_point_y moveto } bind def
/Tf { pop /cairo_font exch def /cairo_font_matrix where
      { pop cairo_selectfont } if } bind def
/Td { matrix translate cairo_font_matrix matrix concatmatrix dup
      /cairo_font_matrix exch def dup 4 get exch 5 get cairo_store_point
      /cairo_font where { pop cairo_selectfont } if } bind def
/Tm { 2 copy 8 2 roll 6 array astore /cairo_font_matrix exch def
      cairo_store_point /cairo_font where { pop cairo_selectfont } if } bind def
/g { setgray } bind def
/rg { setrgbcolor } bind def
/d1 { setcachedevice } bind def
%%EndProlog
%%Page: 1 1
%%BeginPageSetup
%%PageBoundingBox: 0 -1 385 385
%%EndPageSetup
q 0 -1 385 386 rectclip q
0 384.518 385 -385 re W n
0 g
192.281 384.518 m 86.09 384.518 0 298.44 0 192.276 c 0 113.53 47.336 
45.905 115.094 16.171 c 114.52 29.608 114.969 45.706 118.41 60.307 c 
122.125 75.925 143.176 165.089 143.176 165.089 c 143.176 165.089 
137.039 177.362 137.039 195.495 c 137.039 223.991 153.551 245.264 
174.098 245.264 c 191.605 245.264 200.035 232.124 200.035 216.405 c 
200.035 198.835 188.84 172.526 183.078 148.179 c 178.266 127.78 193.301 
111.139 213.402 111.139 c 249.84 111.139 274.379 157.944 274.379 
213.362 c 274.379 255.491 245.996 287.034 194.375 287.034 c 136.043 
287.034 99.73 243.546 99.73 194.972 c 99.73 178.214 104.645 166.409 
112.398 157.268 c 115.941 153.054 116.441 151.358 115.145 146.546 c 
114.223 143.003 112.125 134.487 111.227 131.12 c 109.953 126.245 
106.016 124.511 101.602 126.296 c 74.742 137.28 62.246 166.671 62.246 
199.745 c 62.246 254.37 108.309 319.847 199.637 319.847 c 273.055 
319.847 321.387 266.745 321.387 209.722 c 321.387 134.304 279.441 
77.944 217.617 77.944 c 196.867 77.944 177.34 89.182 170.656 101.925 c 
170.656 101.925 159.484 57.612 157.141 49.073 c 153.051 34.261 145.07 
19.425 137.789 7.882 c 155.07 2.78 173.352 -0.001 192.281 -0.001 c 
298.469 -0.001 384.531 86.077 384.531 192.28 c 384.531 298.44 298.469 
384.518 192.281 384.518 c h
192.281 384.518 m f
Q Q
showpage
%%Trailer
count op_count sub {pop} repeat
countdictstack dict_count sub {end} repeat
cairo_eps_state restore
%%EOF
